{
	"SCY":{

		"%":"%",
		su:"su",

		sstm_lion0:"% shield damage absorption",
		sstm_lion1:"% flux dissipation",
		sstm_ping:"% sensor range",
		sstm_switch0:"weapons output +",
		sstm_switch1:"weapons flux use -",
		sstm_switch2:"range reduced to ",
		sstm_thrust0:"% maneuverability",
		sstm_thrust1:" top speed",
		sstm_stasis:"% damage absorbtion",
		sstm_shell:"Loaded and ready",
		sstm_shield0:"% shield damage reduction",
		sstm_shield1:"% shield arc",

		hm_warning:"WARNING",
		hm_engineer:"can not",
		hm_incompatible:"Can not be installed in conjonction with ",

		stealth_0:"Scyan Stealth Plating",
		stealth_1:"Scyan Engines Signature",

		indus_intel_0:" at ",
		indus_intel_1:"Hidden base revealed in",
		indus_intel_2:"Alpha-level AI core currently assigned.",
		indus_intel_3:"Alpha-level AI core.",
		indus_intel_4:"Reduces the average time to reveal a hidden bases by %s.",
		indus_intel_5:"33%",
		indus_station:"Unavailable technology",

		market_amity:"This isn't a junkyard!",

		wpn_khalkUI:"OUTPT",
		wpn_bird:"BOOST",
		
		tgt_balanced:"NORMAL",
		tgt_heavy:"ARTILLERY",
		tgt_pd:"DEFENSE",
		
		tgt_heavyBonus:"offensive weapons range +",
		tgt_heavyMalus:"PD weapons range -",
		tgt_pdBonus:"PD weapons range +",
		tgt_pdMalus:"offensive weapons range -",

		stm_system:"Acheron's Domain",
		stm_center:"Barycenter",

		stm_starA:"Charon",
		stm_ringA1:"Proto-planetary Disk",
		stm_planetA1:"Ouranos",
		stm_jpA:"Acheron Inner System",
		stm_planetA2:"Cronus",
		stm_ringA2:"Proto-planetary Disk",
		stm_relay:"Old Relay",
		stm_planetA3:"Eros",
		stm_stationA3:"Amity Freeport",
		stm_planetA4:"Gaia",
		stm_ringA3:"Planetary Rubble",
		stm_planetA5:"Chaos",
		stm_stationA5:"Chaos Hideout",
		stm_asteroidAL4:"Tartarus L4 Asteroids",
		stm_asteroidAL5:"Tartarus L5 Asteroids",

		stm_starB:"Tartarus",
		stm_stationBa:"Tartarus Antimatter Collector",
		stm_ringB1:"The River",
		stm_stationBb:"Charon Processing Plant",
		stm_planetB1:"Elysee",
		stm_stationB1:"Hephaistos Shipyard",
		stm_planetB2:"Sisyphus",
		stm_planetB2a:"Boulder",
		stm_planetB3:"Styx Outpost",
		stm_stationB3:"Styx Overwatch",
		stm_planetB4:"Tantalus",
		stm_stationB4:"Gorgyra Volatiles Plant",
		stm_planetB5:"Ixion",
		stm_planetB6:"Tityos",
		stm_ringC:"The Graveyard",
		stm_stationB7:"Yggdrasill Wreckage",
		stm_jpB:"Acheron Outer System",
	}
}