{
    "plugins":{
        "SCY_projectilesEffectPlugin":"data.scripts.plugins.SCY_projectilesEffectPlugin",
        "SCY_muzzleFlashesPlugin":"data.scripts.plugins.SCY_muzzleFlashesPlugin",
    },

    "designTypeColors":{
        "Scyan Engineering":[5,100,200,255],
    },

    "graphics":{
		"characters":{
			"railey":"graphics/SCY/portraits/SCY_portrait08.png",
		},
        "blueprint_packages":{
            "SCY_basic_package":"graphics/SCY/icons/cargo/SCY_package.png",
            "SCY_tech_package":"graphics/SCY/icons/cargo/SCY_adv_package.png",
            "SCY_weapon_package":"graphics/SCY/icons/cargo/SCY_wep_package.png",
        },		
        "misc":{            		
            "SCY_ringsS":"graphics/planets/US_rings_dust1.png",			
            "SCY_ringsD":"graphics/planets/US_rings_special2.png",			
            "SCY_ringsR":"graphics/planets/US_rings_special3.png",
            "SCY_ringsC":"graphics/planets/US_rings_special1.png",
        },	
        "fx":{
            "SCY_singularity":"graphics/SCY/fx/SCY_singularityS.png",
            "SCY_khalkA":"graphics/SCY/fx/SCY_grrr_flareA.png",
            "SCY_khalkB":"graphics/SCY/fx/SCY_grrr_flareB.png",
            "SCY_khalkC":"graphics/SCY/fx/SCY_grrr_flareC.png",
			
            "SCY_splashFull":"graphics/SCY/fx/SCY_splash_full.png",
            "SCY_splashPart":"graphics/SCY/fx/SCY_splash_quarter.png",
        },
        "illustrations":{
            "SCY_elysee":"graphics/SCY/illustrations/SCY_elysee.jpg",
            "SCY_miningColony":"graphics/SCY/illustrations/SCY_miningColony.jpg",
        },
        "beams":{
            "fakeBeamFX":"graphics/FAKEBEAM/fakeBeamFXsharp.png",
        },
        "muzzle":{
            "SCY_minigun3_01":"graphics/SCY/weapons/SCY_minigun3/SCY_minigun3M_00.png",
            "SCY_minigun3_02":"graphics/SCY/weapons/SCY_minigun3/SCY_minigun3M_01.png",
            "SCY_minigun3_03":"graphics/SCY/weapons/SCY_minigun3/SCY_minigun3M_02.png",
            "SCY_minigun3_04":"graphics/SCY/weapons/SCY_minigun3/SCY_minigun3M_03.png",
            "SCY_minigun3_05":"graphics/SCY/weapons/SCY_minigun3/SCY_minigun3M_04.png",
            "SCY_minigun3_06":"graphics/SCY/weapons/SCY_minigun3/SCY_minigun3M_05.png",
            
            "SCY_minigun2_01":"graphics/SCY/weapons/SCY_minigun2/SCY_minigun2M_00.png",
            "SCY_minigun2_02":"graphics/SCY/weapons/SCY_minigun2/SCY_minigun2M_01.png",
            "SCY_minigun2_03":"graphics/SCY/weapons/SCY_minigun2/SCY_minigun2M_02.png",
            "SCY_minigun2_04":"graphics/SCY/weapons/SCY_minigun2/SCY_minigun2M_03.png",
            "SCY_minigun2_05":"graphics/SCY/weapons/SCY_minigun2/SCY_minigun2M_04.png",
            "SCY_minigun2_06":"graphics/SCY/weapons/SCY_minigun2/SCY_minigun2M_05.png",			

            "SCY_minigun1_01":"graphics/SCY/weapons/SCY_minigun1/SCY_minigun1M_00.png",
            "SCY_minigun1_02":"graphics/SCY/weapons/SCY_minigun1/SCY_minigun1M_01.png",
            "SCY_minigun1_03":"graphics/SCY/weapons/SCY_minigun1/SCY_minigun1M_02.png",
            "SCY_minigun1_04":"graphics/SCY/weapons/SCY_minigun1/SCY_minigun1M_03.png",
            "SCY_minigun1_05":"graphics/SCY/weapons/SCY_minigun1/SCY_minigun1M_04.png",
            "SCY_minigun1_06":"graphics/SCY/weapons/SCY_minigun1/SCY_minigun1M_05.png",

            "SCY_orionM_00":"graphics/SCY/weapons/muzzles/SCY_orionM_00.png",
            "SCY_orionM_01":"graphics/SCY/weapons/muzzles/SCY_orionM_01.png",
            "SCY_orionM_02":"graphics/SCY/weapons/muzzles/SCY_orionM_02.png",
            "SCY_orionM_03":"graphics/SCY/weapons/muzzles/SCY_orionM_03.png",
            "SCY_orionM_04":"graphics/SCY/weapons/muzzles/SCY_orionM_04.png",
            "SCY_orionM_05":"graphics/SCY/weapons/muzzles/SCY_orionM_05.png",
            "SCY_orionM_06":"graphics/SCY/weapons/muzzles/SCY_orionM_06.png",

            "SCY_tebM_0":"graphics/SCY/weapons/muzzles/SCY_tebM_00.png",
            "SCY_tebM_1":"graphics/SCY/weapons/muzzles/SCY_tebM_01.png",
            "SCY_tebM_2":"graphics/SCY/weapons/muzzles/SCY_tebM_02.png",
            "SCY_tebM_3":"graphics/SCY/weapons/muzzles/SCY_tebM_03.png",
            "SCY_tebM_4":"graphics/SCY/weapons/muzzles/SCY_tebM_04.png",
            "SCY_tebM_5":"graphics/SCY/weapons/muzzles/SCY_tebM_05.png",
            "SCY_tebM_6":"graphics/SCY/weapons/muzzles/SCY_tebM_06.png",
            "SCY_tebM_7":"graphics/SCY/weapons/muzzles/SCY_tebM_07.png",
            "SCY_tebM_8":"graphics/SCY/weapons/muzzles/SCY_tebM_08.png",
            "SCY_tebM_9":"graphics/SCY/weapons/muzzles/SCY_tebM_09.png",
            "SCY_tebM_10":"graphics/SCY/weapons/muzzles/SCY_tebM_10.png",
            "SCY_tebM_11":"graphics/SCY/weapons/muzzles/SCY_tebM_11.png",

            "SCY_ricochetM_00":"graphics/SCY/weapons/muzzles/SCY_ricochetM_00.png",
            "SCY_ricochetM_01":"graphics/SCY/weapons/muzzles/SCY_ricochetM_01.png",
            "SCY_ricochetM_02":"graphics/SCY/weapons/muzzles/SCY_ricochetM_02.png",
            "SCY_ricochetM_03":"graphics/SCY/weapons/muzzles/SCY_ricochetM_03.png",
            "SCY_ricochetM_04":"graphics/SCY/weapons/muzzles/SCY_ricochetM_04.png",
            "SCY_ricochetM_05":"graphics/SCY/weapons/muzzles/SCY_ricochetM_05.png",

            "SCY_hemor2M1_00":"graphics/SCY/weapons/muzzles/SCY_hemor2M1_00.png",
            "SCY_hemor2M1_01":"graphics/SCY/weapons/muzzles/SCY_hemor2M1_01.png",
            "SCY_hemor2M1_02":"graphics/SCY/weapons/muzzles/SCY_hemor2M1_02.png",
            "SCY_hemor2M1_03":"graphics/SCY/weapons/muzzles/SCY_hemor2M1_03.png",
            "SCY_hemor2M1_04":"graphics/SCY/weapons/muzzles/SCY_hemor2M1_04.png",

            "SCY_hemor2M2_00":"graphics/SCY/weapons/muzzles/SCY_hemor2M2_00.png",
            "SCY_hemor2M2_01":"graphics/SCY/weapons/muzzles/SCY_hemor2M2_01.png",
            "SCY_hemor2M2_02":"graphics/SCY/weapons/muzzles/SCY_hemor2M2_02.png",
            "SCY_hemor2M2_03":"graphics/SCY/weapons/muzzles/SCY_hemor2M2_03.png",
            "SCY_hemor2M2_04":"graphics/SCY/weapons/muzzles/SCY_hemor2M2_04.png",

            "SCY_hemor2M3_00":"graphics/SCY/weapons/muzzles/SCY_hemor2M3_00.png",
            "SCY_hemor2M3_01":"graphics/SCY/weapons/muzzles/SCY_hemor2M3_01.png",
            "SCY_hemor2M3_02":"graphics/SCY/weapons/muzzles/SCY_hemor2M3_02.png",
            "SCY_hemor2M3_03":"graphics/SCY/weapons/muzzles/SCY_hemor2M3_03.png",
            "SCY_hemor2M3_04":"graphics/SCY/weapons/muzzles/SCY_hemor2M3_04.png",

            "SCY_hemor3M1_00":"graphics/SCY/weapons/muzzles/SCY_hemor3M1_00.png",
            "SCY_hemor3M1_01":"graphics/SCY/weapons/muzzles/SCY_hemor3M1_01.png",
            "SCY_hemor3M1_02":"graphics/SCY/weapons/muzzles/SCY_hemor3M1_02.png",
            "SCY_hemor3M1_03":"graphics/SCY/weapons/muzzles/SCY_hemor3M1_03.png",
            "SCY_hemor3M1_04":"graphics/SCY/weapons/muzzles/SCY_hemor3M1_04.png",

            "SCY_hemor3M2_00":"graphics/SCY/weapons/muzzles/SCY_hemor3M2_00.png",
            "SCY_hemor3M2_01":"graphics/SCY/weapons/muzzles/SCY_hemor3M2_01.png",
            "SCY_hemor3M2_02":"graphics/SCY/weapons/muzzles/SCY_hemor3M2_02.png",
            "SCY_hemor3M2_03":"graphics/SCY/weapons/muzzles/SCY_hemor3M2_03.png",
            "SCY_hemor3M2_04":"graphics/SCY/weapons/muzzles/SCY_hemor3M2_04.png",

            "SCY_hemor3M3_00":"graphics/SCY/weapons/muzzles/SCY_hemor3M3_00.png",
            "SCY_hemor3M3_01":"graphics/SCY/weapons/muzzles/SCY_hemor3M3_01.png",
            "SCY_hemor3M3_02":"graphics/SCY/weapons/muzzles/SCY_hemor3M3_02.png",
            "SCY_hemor3M3_03":"graphics/SCY/weapons/muzzles/SCY_hemor3M3_03.png",
            "SCY_hemor3M3_04":"graphics/SCY/weapons/muzzles/SCY_hemor3M3_04.png",                        

            "SCY_kacc3HM_0":"graphics/SCY/weapons/muzzles/SCY_kacc3HM_00.png",
            "SCY_kacc3HM_1":"graphics/SCY/weapons/muzzles/SCY_kacc3HM_01.png",
            "SCY_kacc3HM_2":"graphics/SCY/weapons/muzzles/SCY_kacc3HM_02.png",
            "SCY_kacc3HM_3":"graphics/SCY/weapons/muzzles/SCY_kacc3HM_03.png",
            "SCY_kacc3HM_4":"graphics/SCY/weapons/muzzles/SCY_kacc3HM_04.png",
            "SCY_kacc3HM_5":"graphics/SCY/weapons/muzzles/SCY_kacc3HM_05.png",
            "SCY_kacc3HM_6":"graphics/SCY/weapons/muzzles/SCY_kacc3HM_06.png",
            "SCY_kacc3HM_7":"graphics/SCY/weapons/muzzles/SCY_kacc3HM_07.png",
            "SCY_kacc3HM_8":"graphics/SCY/weapons/muzzles/SCY_kacc3HM_08.png",
            "SCY_kacc3HM_9":"graphics/SCY/weapons/muzzles/SCY_kacc3HM_09.png",
            "SCY_kacc3HM_10":"graphics/SCY/weapons/muzzles/SCY_kacc3HM_10.png",
            "SCY_kacc3HM_11":"graphics/SCY/weapons/muzzles/SCY_kacc3HM_11.png",
            "SCY_kacc3HM_12":"graphics/SCY/weapons/muzzles/SCY_kacc3HM_12.png",
            "SCY_kacc3HM_13":"graphics/SCY/weapons/muzzles/SCY_kacc3HM_13.png",
            "SCY_kacc3HM_14":"graphics/SCY/weapons/muzzles/SCY_kacc3HM_14.png",

            "SCY_kacc3TM_0":"graphics/SCY/weapons/muzzles/SCY_kacc3TM_00.png",
            "SCY_kacc3TM_1":"graphics/SCY/weapons/muzzles/SCY_kacc3TM_01.png",
            "SCY_kacc3TM_2":"graphics/SCY/weapons/muzzles/SCY_kacc3TM_02.png",
            "SCY_kacc3TM_3":"graphics/SCY/weapons/muzzles/SCY_kacc3TM_03.png",
            "SCY_kacc3TM_4":"graphics/SCY/weapons/muzzles/SCY_kacc3TM_04.png",
            "SCY_kacc3TM_5":"graphics/SCY/weapons/muzzles/SCY_kacc3TM_05.png",
            "SCY_kacc3TM_6":"graphics/SCY/weapons/muzzles/SCY_kacc3TM_06.png",
            "SCY_kacc3TM_7":"graphics/SCY/weapons/muzzles/SCY_kacc3TM_07.png",
            "SCY_kacc3TM_8":"graphics/SCY/weapons/muzzles/SCY_kacc3TM_08.png",
            "SCY_kacc3TM_9":"graphics/SCY/weapons/muzzles/SCY_kacc3TM_09.png",
            "SCY_kacc3TM_10":"graphics/SCY/weapons/muzzles/SCY_kacc3TM_10.png",
            "SCY_kacc3TM_11":"graphics/SCY/weapons/muzzles/SCY_kacc3TM_11.png",
            "SCY_kacc3TM_12":"graphics/SCY/weapons/muzzles/SCY_kacc3TM_12.png",
            "SCY_kacc3TM_13":"graphics/SCY/weapons/muzzles/SCY_kacc3TM_13.png",
            "SCY_kacc3TM_14":"graphics/SCY/weapons/muzzles/SCY_kacc3TM_14.png",

            "SCY_kacc2TM_0":"graphics/SCY/weapons/muzzles/SCY_kacc2TM_00.png",
            "SCY_kacc2TM_1":"graphics/SCY/weapons/muzzles/SCY_kacc2TM_01.png",
            "SCY_kacc2TM_2":"graphics/SCY/weapons/muzzles/SCY_kacc2TM_02.png",
            "SCY_kacc2TM_3":"graphics/SCY/weapons/muzzles/SCY_kacc2TM_03.png",
            "SCY_kacc2TM_4":"graphics/SCY/weapons/muzzles/SCY_kacc2TM_04.png",
            "SCY_kacc2TM_5":"graphics/SCY/weapons/muzzles/SCY_kacc2TM_05.png",
            "SCY_kacc2TM_6":"graphics/SCY/weapons/muzzles/SCY_kacc2TM_06.png",
            "SCY_kacc2TM_7":"graphics/SCY/weapons/muzzles/SCY_kacc2TM_07.png",
            "SCY_kacc2TM_8":"graphics/SCY/weapons/muzzles/SCY_kacc2TM_08.png",
            "SCY_kacc2TM_9":"graphics/SCY/weapons/muzzles/SCY_kacc2TM_09.png",
            "SCY_kacc2TM_10":"graphics/SCY/weapons/muzzles/SCY_kacc2TM_10.png",
            "SCY_kacc2TM_11":"graphics/SCY/weapons/muzzles/SCY_kacc2TM_11.png",

            "SCY_kacc2HM_0":"graphics/SCY/weapons/muzzles/SCY_kacc2HM_00.png",
            "SCY_kacc2HM_1":"graphics/SCY/weapons/muzzles/SCY_kacc2HM_01.png",
            "SCY_kacc2HM_2":"graphics/SCY/weapons/muzzles/SCY_kacc2HM_02.png",
            "SCY_kacc2HM_3":"graphics/SCY/weapons/muzzles/SCY_kacc2HM_03.png",
            "SCY_kacc2HM_4":"graphics/SCY/weapons/muzzles/SCY_kacc2HM_04.png",
            "SCY_kacc2HM_5":"graphics/SCY/weapons/muzzles/SCY_kacc2HM_05.png",
            "SCY_kacc2HM_6":"graphics/SCY/weapons/muzzles/SCY_kacc2HM_06.png",
            "SCY_kacc2HM_7":"graphics/SCY/weapons/muzzles/SCY_kacc2HM_07.png",
            "SCY_kacc2HM_8":"graphics/SCY/weapons/muzzles/SCY_kacc2HM_08.png",
            "SCY_kacc2HM_9":"graphics/SCY/weapons/muzzles/SCY_kacc2HM_09.png",
            "SCY_kacc2HM_10":"graphics/SCY/weapons/muzzles/SCY_kacc2HM_10.png",
            "SCY_kacc2HM_11":"graphics/SCY/weapons/muzzles/SCY_kacc2HM_11.png",
        },
    }
}